…
Note that the spatial dimensions of the “active” grid are defined by
`xh` nd `yh` not `x` and `y` or `lon` and `lat`. That is a choice of the
creator of the NetCDF resource, and so we use those names for filtering.

Time requires some background understanding of the CEFI architecture
coupled with the `tidync` approach to navigating the NetCDF object. To
ease that for the user we have created a function called `cefi_time()`
which is a wrapper around `tidync::hyper_transforms()`, but adds a
column called `time_` which can be either ‘Date’ of ‘POSIXct’ class.

``` r
cefi_time(nc)
```

    ## # A tibble: 9,861 × 8
    ##     time timestamp           index    id name  coord_dim selected time_     
    ##    <dbl> <chr>               <int> <int> <chr> <lgl>     <lgl>    <date>    
    ##  1   0.5 1993-01-01 12:00:00     1     0 time  TRUE      TRUE     1993-01-01
    ##  2   1.5 1993-01-02 12:00:00     2     0 time  TRUE      TRUE     1993-01-02
    ##  3   2.5 1993-01-03 12:00:00     3     0 time  TRUE      TRUE     1993-01-03
    ##  4   3.5 1993-01-04 12:00:00     4     0 time  TRUE      TRUE     1993-01-04
    ##  5   4.5 1993-01-05 12:00:00     5     0 time  TRUE      TRUE     1993-01-05
    ##  6   5.5 1993-01-06 12:00:00     6     0 time  TRUE      TRUE     1993-01-06
    ##  7   6.5 1993-01-07 12:00:00     7     0 time  TRUE      TRUE     1993-01-07
    ##  8   7.5 1993-01-08 12:00:00     8     0 time  TRUE      TRUE     1993-01-08
    ##  9   8.5 1993-01-09 12:00:00     9     0 time  TRUE      TRUE     1993-01-09
    ## 10   9.5 1993-01-10 12:00:00    10     0 time  TRUE      TRUE     1993-01-10
    ## # ℹ 9,851 more rows
…
